{"page":1,"total_results":428118,"total_pages":21406,"results":[{"vote_count":0,"id":618092,"video":false,"vote_average":0,"title":"Homostelu","popularity":1.176,"poster_path":"\/4EgZNnesU77BlOuzVAppz5uS3dP.jpg","original_language":"ia","original_title":"Homostelu","genre_ids":[28,12,16,35,80,99,18,10751,14,36,27,10402,9648,10749,878,53,10770,10752,37],"backdrop_path":null,"adult":false,"overview":"The relations between Finland and Hungary are traditionally good; for example, there has always been a lively cultural cooperation between the two countries, and of course, the recognition of language relationship has created close ties for Finns and Hungarians. Despite these facts, foreign trade and investment relations between Finland and Hungary have been sluggish in recent years. The Finnish FDI value in Hungary has been decreasing for several years. My main goal is to turn back this progress.","release_date":"2069-04-20"},{"vote_count":0,"id":393209,"video":false,"vote_average":0,"title":"Avatar 5","popularity":1.26,"poster_path":null,"original_language":"en","original_title":"Avatar 5","genre_ids":[28,12,14,878],"backdrop_path":null,"adult":false,"overview":"Plot unknown.","release_date":"2027-12-17"},{"vote_count":0,"id":465559,"video":false,"vote_average":0,"title":"The Zero Century: Maetel","popularity":1.111,"poster_path":"\/oFbrPffgM94psqkdxiXMTlCvCtU.jpg","original_language":"ja","original_title":"零世紀 メーテル","genre_ids":[878,16],"backdrop_path":"\/19URihLRPW7r2sFSvjpFZDKfrAM.jpg","adult":false,"overview":"The story of Princess Maetel and how she came to start her timeless train trip on the Galaxy Express 999.","release_date":"2026-01-01"},{"vote_count":0,"id":216527,"video":false,"vote_average":0,"title":"Avatar 4","popularity":3.767,"poster_path":null,"original_language":"en","original_title":"Avatar 4","genre_ids":[28,878,12,14],"backdrop_path":null,"adult":false,"overview":"","release_date":"2025-12-19"},{"vote_count":1,"id":531229,"video":false,"vote_average":0,"title":"Son Göktürk","popularity":0.631,"poster_path":"\/iuk8tKnme2qjFB0wHTaCqJbGuhf.jpg","original_language":"tr","original_title":"Son Göktürk","genre_ids":[],"backdrop_path":"\/yZfia37VeZqqoxzq5gKgkTKWbRc.jpg","adult":false,"overview":"","release_date":"2025-01-01"},{"vote_count":6,"id":422642,"video":false,"vote_average":0,"title":"Fantastic Beasts 5","popularity":2.337,"poster_path":null,"original_language":"en","original_title":"Fantastic Beasts 5","genre_ids":[12,10751,14],"backdrop_path":null,"adult":false,"overview":"","release_date":"2024-12-31"},{"vote_count":0,"id":519258,"video":false,"vote_average":0,"title":"Black Blood","popularity":0.851,"poster_path":"\/adFRjMiYYXrekiLe0XAoZKmhD9d.jpg","original_language":"hu","original_title":"Fekete Vér","genre_ids":[53,18],"backdrop_path":null,"adult":false,"overview":"The Black Blood movie covers about 20 years of history and is about the oiling in the 1990s and the mafia showdown. About the era in which so many people died innocently. From the era where the government and mafia were separated by a hairpin. Everyone who had some capital started to oil because at the time it was the most profitable industry. The protagonist of our movie did this too. But because of his envy, jealousy, and unswerving domination, he wanted much more for himself. If someone was richer than he wanted to destroy it immediately.","release_date":"2024-08-31"},{"vote_count":0,"id":83533,"video":false,"vote_average":0,"title":"Avatar 3","popularity":4.289,"poster_path":null,"original_language":"en","original_title":"Avatar 3","genre_ids":[28,18,878,12,14],"backdrop_path":null,"adult":false,"overview":"","release_date":"2023-12-22"},{"vote_count":0,"id":508957,"video":false,"vote_average":0,"title":"Untitled Disney Live Action Project","popularity":0.6,"poster_path":null,"original_language":"en","original_title":"Untitled Disney Live Action Project","genre_ids":[10751],"backdrop_path":null,"adult":false,"overview":"Plot unknown.","release_date":"2023-02-17"},{"vote_count":0,"id":465558,"video":false,"vote_average":0,"title":"The Zero Century: Harlock","popularity":1.126,"poster_path":"\/eYMm4LYgUgHqdAzVJQ55reOEGlU.jpg","original_language":"ja","original_title":"零世紀 ハーロック","genre_ids":[878,16],"backdrop_path":"\/19URihLRPW7r2sFSvjpFZDKfrAM.jpg","adult":false,"overview":"The story of Space Pirate Captain Harlock.","release_date":"2023-01-01"},{"vote_count":0,"id":381344,"video":false,"vote_average":0,"title":"Uru in Blue","popularity":0.6,"poster_path":"\/iXJOUf644gX42K2PNuFJnlThC6U.jpg","original_language":"ja","original_title":"Aoki uru","genre_ids":[10752,878,16],"backdrop_path":null,"adult":false,"overview":"The new generation of the Royal Space Force and their endeavors to make it to space.","release_date":"2022-12-31"},{"vote_count":0,"id":472221,"video":false,"vote_average":0,"title":"Aadujeevitham","popularity":0.836,"poster_path":"\/27Ie59CoKsLZR3to5E3Kb1FoFSq.jpg","original_language":"ml","original_title":"ആടുജീവിതം","genre_ids":[18],"backdrop_path":null,"adult":false,"overview":"Aadujeevitham about an abused migrant worker in Saudi Arabia this movie base on best seller Novel by the same name","release_date":"2022-12-30"},{"vote_count":0,"id":510373,"video":false,"vote_average":0,"title":"Untitled Star Wars\/David Benioff & D.B. Weiss Project","popularity":0.901,"poster_path":null,"original_language":"en","original_title":"Untitled Star Wars\/David Benioff & D.B. Weiss Project","genre_ids":[878,14,28,12],"backdrop_path":null,"adult":false,"overview":"Plot unknown. Described as a series of 'Star Wars' films that will be separate from the episodic Skywalker Saga and Rian Johnson's trilogy.","release_date":"2022-12-16"},{"vote_count":0,"id":572802,"video":false,"vote_average":0,"title":"Aquaman 2","popularity":2.86,"poster_path":null,"original_language":"en","original_title":"Aquaman 2","genre_ids":[12,878,28],"backdrop_path":null,"adult":false,"overview":"A sequel to Aquaman (2018).","release_date":"2022-12-14"},{"vote_count":0,"id":579101,"video":false,"vote_average":0,"title":"Untitled Batman Beyond Film","popularity":0.606,"poster_path":null,"original_language":"en","original_title":"Untitled Batman Beyond Film","genre_ids":[16,28,80,878],"backdrop_path":null,"adult":false,"overview":"An animated film based on the television show from the same name.","release_date":"2022-12-01"},{"vote_count":0,"id":422641,"video":false,"vote_average":0,"title":"Fantastic Beasts 4","popularity":1.319,"poster_path":null,"original_language":"en","original_title":"Fantastic Beasts 4","genre_ids":[12,10751,14],"backdrop_path":null,"adult":false,"overview":"","release_date":"2022-11-24"},{"vote_count":0,"id":508954,"video":false,"vote_average":0,"title":"Untitled Disney Live Action Project (5)","popularity":0.856,"poster_path":null,"original_language":"en","original_title":"Untitled Disney Live Action Project (5)","genre_ids":[10751],"backdrop_path":null,"adult":false,"overview":"Plot unknown.","release_date":"2022-11-16"},{"vote_count":0,"id":508953,"video":false,"vote_average":0,"title":"Untitled Disney Live Action Project (4)","popularity":0.6,"poster_path":null,"original_language":"en","original_title":"Untitled Disney Live Action Project (4)","genre_ids":[10751],"backdrop_path":null,"adult":false,"overview":"Plot unknown.","release_date":"2022-11-04"},{"vote_count":0,"id":508951,"video":false,"vote_average":0,"title":"Untitled Disney Live Action Project (3)","popularity":0.6,"poster_path":null,"original_language":"en","original_title":"Untitled Disney Live Action Project (3)","genre_ids":[10751],"backdrop_path":null,"adult":false,"overview":"Plot unknown.","release_date":"2022-10-07"},{"vote_count":0,"id":575265,"video":false,"vote_average":0,"title":"Mission: Impossible 8","popularity":0.6,"poster_path":null,"original_language":"en","original_title":"Mission: Impossible 8","genre_ids":[28],"backdrop_path":null,"adult":false,"overview":"","release_date":"2022-08-05"}]}
